Src_v/comparator_w.vcd
$date
	Tue Aug 31 14:04:49 2021
$end
$version
	GTKWave Analyzer v3.3.103 (w)1999-2019 BSI
$end
$timescale
	1ns
$end
$scope module TOP $end
$var wire 32 " A[31:0] $end
$var wire 32 # B[31:0] $end
$var wire 1 & Equal $end
$var wire 1 % Greater $end
$var wire 1 $ Less $end
$upscope $end
$enddefinitions $end
#0
$dumpvars
1&
0%
b0 "
b0 #
0$
$end
#5
b1010 "
b1010 #
#11
b11100000001101101101011000101 #
1$
0&
b10010000110101100011101011110000 "
#21
b11010110111001010000100111111101 "
b1000010011111000011110001010010 #
#31
b1000100011100100100101010001 #
b11000011110011010011011101000110 "
#41
b1010111111010000010101100001110 "
b1110111000110001000101100000010 #
#51
b1011001110000001001110100000100 #
b11010011101100111001110111010101 "
#61
b10000110000100110101000100110010 "
b1100000110100100000111100001010 #
#71
b1001010011011100010101011110 #
b11111101110001000011010100101111 "
#81
b1110001001111100001010101001000 "
b10110111110111000101010000110100 #
0$
1%
#91
0%
1$
b10100011001100000010010110110111 "
b10101010100000001101110011111 #
#101
b101000110101100001001001000101 #
b1110010111001100110011010110001 "
1%
0$
#111
1$
0%
b110001001010111001000111100010 #
b10001011100111010010001010101111 "
#121
b11110100111101111111100001001100 "
b111011011100101111010111110011 #
#131
b10100111001101011000110111000010 #
b11011000000111110100110110100100 "
0$
1%
#141
0%
1$
b1101100010010010001111110101011 #
b1000001101100101111001111011111 "
#151
b1101011101101101001111011011110 "
b10110101001010111010011010010111 #
1%
0$
#161
b111011111001001011011101011110 "
b10010110110100110111000100110011 #
#171
b111111110011100011001001001101 #
b11001001001010111111110000011101 "
0%
1$
#181
0$
1%
b1101011110001111111010000110111 #
b1110010000000111010111110001100 "
#191
b10011011001110110111000100001110 "
b10100011001001011011010001010100 #
1$
0%
#201
b10110101000001111000111111000111 "
b11011010110110110101111001001111 #
#211
b11010111001101100101101001001011 #
b10101000101001010010001010110001 "
#221
b110001101000001111101111011010 "
b10010111000100101110010000101 #
0$
1%
#231
0%
1$
b1101100001110111101001010111010 "
b1111010010010101101011000011100 #
#241
b11001000010011101001100110010110 #
b10010111101101010000101011110 "
1%
0$
#251
1$
0%
b1111011000001010010101001011111 #
b10111110100001111010010100001101 "
#261
b10011001100100011010010011010110 "
b11010000100010111110010001000110 #
#271
b1100110110010110001100010001011 #
b11010011010111000100100001010111 "
#281
b10111100111110111011011110100001 "
b11010000001000001101101011111 #
#291
b10010001011011011111011000001 #
b11110011011010100000100110000101 "
#301
b11110001010111001110110100000001 "
b10010100110000101110110000010001 #
0$
1%
#311
b10101110110000110110110111100101 "
b10010001010010110100001110000110 #
#321
b11011100011010100001001001110 #
b111001111001001111100011001110 "
#331
b11101110001100001010011110110011 "
b1000000110000110010100101111101 #
1$
0%
#341
b1101000101001011101101011001000 "
b1101001100011111010111100010101 #
#351
b10110100111111101110001010100100 #
b1000001110110001111111010111110 "
0$
1%
#361
b1011101011010000101111100110111 #
b1110000001100110100111000110000 "
#371
b1000010110000100010111010101 "
b11110101010101000100001001101100 #
#381
b1111110101000110110111000101010 #
b10001110100010010010001000101 "
1$
0%
#391
b11000001111000000101110001110000 #
b10111001000101110100101110101110 "
#401
b1100111010000000100110111101111 "
b11011000100110000110110011011 #
0$
1%
#411
b1001110111001001001000110011000 "
b10000000000111001100110110010101 #
#421
b11101011000011111100111001111101 #
b10110101011101111111100010000000 "
1$
0%
#431
b10011011010101011000000001100011 #
b10001010011101100110000011000011 "
#441
b10110001110001001111010110111000 "
b100010011101011010000011101101 #
#451
b10000001011100101100111101100011 #
b100100000111011010111100011011 "
0$
1%
#461
b11101000111011001100100011011100 #
b11111101110110101010101110101100 "
#471
b10110010111101100101111101011000 "
b10110101001000000010000010000 #
1$
0%
#481
b10001101000000100111010000011110 "
b11010001001111100110101111001001 #
#491
b10101000110011011011011010101100 #
b11001100100100100101110011011011 "
0$
1%
#501
b11011001111110111000111010011001 #
b1001011010000110011100001111101 "
#511
b10010100101100100010111011001110 "
b1101110000110111110000000100011 #
1$
0%
#521
b11000011101001110111100000111001 "
b11001011010001110111110011000100 #
#531
b10101111011000111001001100011000 #
b110111001001100000010100111001 "
0$
1%
#541
b110001101001000111010000001101 #
b111001001100101110011100110101 "
#551
b10001010000001001000011101011111 "
b100000100000001000011001111000 #
1$
0%
#561
b1011101010000110000100111101111 "
b1111000010101110100001111011011 #
#571
b1010100101001110100101111111111 #
b10111010111011111000000111001000 "
#581
b1001101100001011001101000001101 "
b1000010111010110101110011110100 #
0$
1%
#591
0%
1$
b11010010010011010010000111010010 "
b1110101011111000000100010110100 #
#601
b11101100000001110110001010000110 #
b11111100001010111100110011010100 "
1%
0$
#611
1$
0%
b1100000001110000000100101001001 #
b11011010011111010101011000000010 "
#621
b11100000011111101001001100001111 "
b10000000100010110110010001111110 #
0$
1%
#631
b1010001110101011011101101000 "
b11110011100111110101111110000111 #
#641
b1000010010111011000000000111011 #
b110011111100110111110001 "
1$
0%
#651
b11011101000000010111011001011 #
b11000101101000101000100101000110 "
#661
b1010000001111001111111001001011 "
b1011010110010101111111000100000 #
#671
b10001101010010010011101010111010 #
b100011111000001000000111100100 "
0$
1%
#681
b10000111000100110110000000011010 #
b1100011010100000000101111101011 "
#691
b10010100100000111101101100010100 "
b10111101001010001011000100011101 #
1$
0%
#701
1%
0$
b1000010100011101111101110010000 "
b10011001111010110100010000101 #
#711
b11111110010100100010111010000111 #
b11101010101101100001100010011110 "
0%
1$
#721
b111110101011001110100000101110 #
b1101100100111101100111 "
#731
b1011110100101100011001100010100 "
b10001111101011100100111001001101 #
1%
0$
#741
b1001110100110111010101000111100 "
b10000000111101001000100000111 #
#751
b1101011010001101110101000011010 #
b1111010000111011001101100001110 "
#761
b10110110010100001010001101001111 "
b11100001010110111110100001001111 #
0%
1$
#771
0$
1%
b11010101001011110011011110011010 "
b10011010110100101111000000001000 #
#781
b10010110100001100101001100010001 #
b11000110000000110100010101111100 "
#791
b110111010010001100010101000011 "
b11010111111111010011001010101100 #
#801
b11111100100101101001101110111101 #
b1101011000010001101000100000100 "
#811
b10001010010010010000001010000000 "
b1100010011111001110110010001010 #
1$
0%
#821
1%
0$
b1100010011100100101010001010001 "
b1011111111001110111101000010101 #
#831
b1010011100010010001110101110010 #
b10011100010111111001100000111010 "
0%
1$
#841
0$
1%
b10011101111010011001101001011110 #
b101111100011000011000010000101 "
#851
b10101001111010001110100001100 "
b11010100101111000011010000001111 #
#861
b1001111011111100110110001100011 #
b11111001011111011111101100111100 "
1$
0%
#871
1%
0$
b110110111110111010100110000 #
b1011100011001100100101000101010 "
#881
b1000010011101000101001001101000 "
b1111101000101000011110110110000 #
0%
1$
#891
b101010000111101000001010100110 "
b1011111001000111001100111010010 #
#901
b1111000010010001110110000000101 #
b10010101111011111100001000010011 "
#911
b10001111110110100100011011001111 "
b10100011111011001101011100010 #
#921
b101001111000101001011110110000 #
b1101011101101011001001011101 "
#931
b1110111101101011111111100101011 "
b101110010110001100000110010111 #
1%
0$
#941
b111010001111111100111111100101 "
b11110110001101100000011100100 #
#951
b100101000101110001000101000101 #
b10110101111101100100101000001001 "
0%
1$
#961
b11011011000101001000101100110101 #
b10011011101100101000101010010101 "
#971
b10110001000000000100101110000101 "
b10111010110110011000000110100100 #
#981
b11010011100110011110111 #
b11100101110011100001110101000110 "
#991
b11010101000101001000011000001011 "
b10111111010011101111110001000 #
